<?xml version="1.0" standalone="no"?>
<!DOCTYPE svg PUBLIC "-//W3C//DTD SVG 1.1//EN" "http://www.w3.org/Graphics/SVG/1.1/DTD/svg11.dtd" >
<svg xmlns="http://www.w3.org/2000/svg">
<metadata>Generated by IcoMoon</metadata>
<defs>
<font id="icomoon" horiz-adv-x="1024">
<font-face units-per-em="1024" ascent="960" descent="-64" />
<missing-glyph horiz-adv-x="1024" />
<glyph unicode="&#x20;" horiz-adv-x="512" d="" />
<glyph unicode="&#xe900;" glyph-name="taikhoan" d="M384 533.333c-117.632 0-213.333 95.701-213.333 213.333s95.701 213.333 213.333 213.333c117.632 0 213.333-95.701 213.333-213.333s-95.701-213.333-213.333-213.333zM384 917.333c-94.123 0-170.667-76.544-170.667-170.667s76.544-170.667 170.667-170.667c94.123 0 170.667 76.544 170.667 170.667s-76.544 170.667-170.667 170.667zM362.667 64h-341.333c-11.776 0-21.333 9.557-21.333 21.333v170.667c0 105.853 86.144 192 192 192h256c11.776 0 21.333-9.557 21.333-21.333s-9.557-21.333-21.333-21.333h-256c-82.347 0-149.333-66.987-149.333-149.333v-149.333h320c11.776 0 21.333-9.557 21.333-21.333s-9.557-21.333-21.333-21.333zM725.333 106.667c-58.795 0-106.667 47.872-106.667 106.667s47.872 106.667 106.667 106.667c58.795 0 106.667-47.872 106.667-106.667s-47.872-106.667-106.667-106.667zM725.333 277.333c-35.288 0-64-28.718-64-64s28.712-64 64-64c35.282 0 64 28.718 64 64s-28.718 64-64 64zM759.359-64.011h-68.056c-22.016 0-40.277 16.509-42.45 38.44l-5.422 54.232c-12.925 5.757-25.259 12.925-36.904 21.458l-49.838-22.482c-20.011-9.131-43.52-1.496-54.485 17.579l-34.005 58.92c-11.008 19.075-5.803 43.139 12.032 55.979l43.904 31.573c-0.853 6.616-1.451 13.955-1.451 21.635s0.597 15.058 1.451 21.629l-43.904 31.573c-17.835 12.846-23.040 36.91-12.032 55.979l34.005 58.926c11.008 19.070 34.389 26.622 54.485 17.577l49.838-22.486c11.645 8.533 23.979 15.702 36.904 21.462l5.422 54.229c2.173 21.888 20.434 38.4 42.45 38.4h68.056c22.016 0 40.277-16.512 42.45-38.443l5.422-54.229c12.971-5.76 25.298-12.972 36.904-21.46l49.835 22.484c20.099 9.003 43.52 1.451 54.488-17.58l34.002-58.92c11.008-19.075 5.803-43.139-12.032-55.979l-43.901-31.573c0.853-6.616 1.451-13.955 1.451-21.635s-0.597-15.058-1.451-21.629l43.901-31.573c17.835-12.846 23.040-36.91 12.032-55.979l-33.963-58.88c-11.008-19.029-34.344-26.67-54.482-17.579l-49.835 22.482c-11.651-8.533-23.979-15.701-36.91-21.458l-5.461-54.272c-2.173-21.891-20.434-38.4-42.45-38.4zM609.513 96.199c4.904 0 9.768-1.707 13.693-4.989 14.467-12.117 30.464-21.379 47.491-27.608 7.68-2.816 13.096-9.768 13.909-17.92l6.741-67.026h68.050l6.702 67.026c0.808 8.152 6.229 15.104 13.909 17.92 17.021 6.229 33.024 15.531 47.485 27.608 6.315 5.245 15.019 6.44 22.443 3.072l61.611-27.819 34.008 58.92-54.528 39.168c-6.656 4.779-9.944 12.971-8.579 21.038 1.582 9 2.862 18.176 2.862 27.648s-1.28 18.642-2.862 27.648c-1.405 8.061 1.923 16.213 8.579 21.032l54.528 39.168-34.008 58.926-61.611-27.779c-7.464-3.368-16.168-2.173-22.482 3.072-14.421 12.117-30.379 21.379-47.491 27.608-7.68 2.816-13.096 9.768-13.909 17.92l-6.696 67.156h-68.056l-6.696-67.030c-0.814-8.146-6.229-15.104-13.909-17.92-17.027-6.229-33.024-15.531-47.491-27.602-6.269-5.251-14.973-6.485-22.443-3.072l-61.611 27.819-34.005-58.926 54.528-39.168c6.656-4.779 9.941-12.971 8.576-21.032-1.579-9.006-2.859-18.176-2.859-27.648s1.28-18.648 2.859-27.648c1.411-8.067-1.92-16.213-8.576-21.038l-54.528-39.168 34.005-58.92 61.611 27.773c2.816 1.195 5.763 1.792 8.75 1.792z" />
<glyph unicode="&#xe901;" glyph-name="taixuong" d="M512 789.35v-522.664l224 223.998 32-28.33-277.334-277.331-277.333 277.331 32 28.33 224-223.998v522.664h42.666zM128 149.35h42.666v-85.335h639.998v85.335h42.67v-128h-725.335v128z" />
<glyph unicode="&#xe902;" glyph-name="theodoi" d="M416 928c-59.387-0.067-116.324-23.689-158.317-65.682s-65.615-98.93-65.682-158.318v-159.362c0.020-26.768 6.736-53.106 19.536-76.616l54.91-100.668-145.646-94.669c-22.384-14.49-40.776-34.361-53.494-57.799-12.718-23.433-19.356-49.687-19.306-76.351v-170.536h576.003v64h-512.002v106.536c-0.030 15.997 3.953 31.75 11.584 45.813s18.668 25.987 32.098 34.679l195.32 126.959-83.28 152.681c-7.68 14.106-11.71 29.909-11.722 45.97v159.362c0 42.435 16.857 83.131 46.863 113.137s70.702 46.863 113.137 46.863c42.435 0 83.132-16.857 113.137-46.863s46.863-70.703 46.863-113.137v-159.362c-0.011-16.061-4.039-31.864-11.722-45.97l-83.278-152.681 143.003-92.951v76.328l-58.449 38.002 54.91 100.668c12.8 23.506 19.513 49.84 19.536 76.604v159.362c-0.068 59.388-23.689 116.324-65.684 158.318-41.991 41.993-98.928 65.615-158.316 65.682zM847.997 160v128h-64v-128h-128v-64h128v-128h64v128h128v64h-128z" />
<glyph unicode="&#xe905;" glyph-name="search" d="M765.283 254.904l246.176-246.182c16.721-16.504 16.721-43.677 0-60.181-16.715-16.721-43.677-16.721-60.392 0l-246.182 245.965c-74.397-61.018-169.48-97.593-273.342-97.593-238.446 0-431.543 193.307-431.543 431.544s193.097 431.543 431.543 431.543c238.237 0 431.544-193.306 431.544-431.543 0-103.863-36.78-199.157-97.804-273.553zM85.75 528.389c0-190.589 155.063-345.653 345.861-345.653 190.589 0 345.864 155.064 345.864 345.653s-155.275 345.861-345.864 345.861c-190.798 0-345.861-155.272-345.861-345.861z" />
<glyph unicode="&#xe907;" glyph-name="trl-nx" d="M695.442 81.516c-10.951-10.779-27.379-10.779-38.33-10.779-10.951 5.389-21.903 16.168-21.903 26.947v156.295h-93.092c-301.175 5.389-542.116 242.526-542.116 538.947 0 16.168 10.952 26.947 21.904 32.337 5.476 0 5.476 0 10.952 0 10.952 0 21.904-5.389 27.38-16.168l10.952-16.168c87.615-134.737 240.941-220.968 405.219-220.968h164.278v156.295c0 10.779 5.476 21.558 21.903 26.947 10.951 5.389 27.379 0 32.854-5.389l317.607-312.589c10.951-10.779 10.951-32.337 0-43.116l-317.607-312.589zM700.917 652.8v-107.789c0-16.168-16.427-32.337-32.854-32.337h-191.657c-153.326 0-295.7 64.674-394.267 172.463 49.284-204.8 240.941-361.095 465.453-361.095h125.947c16.427 0 32.86-16.168 32.86-32.337v-113.179l240.936 237.137-246.418 237.137z" />
<glyph unicode="&#xe909;" glyph-name="like" horiz-adv-x="1092" d="M546.127 772.4l-48.947 50.313c-114.893 118.101-325.564 77.346-401.613-71.134-35.703-69.837-43.759-170.667 21.436-299.349 62.805-123.904 193.468-272.312 429.125-433.968 235.657 161.655 366.251 310.064 429.124 433.968 65.195 128.751 57.207 229.513 21.436 299.349-76.049 148.48-286.72 189.304-401.613 71.202l-48.947-50.381zM546.127-64c-1046.733 691.674-322.288 1231.527-12.016 945.968 4.096-3.755 8.124-7.646 12.016-11.674 3.852 4.024 7.86 7.896 12.014 11.605 310.204 285.764 1034.719-254.157-12.014-945.9z" />
<glyph unicode="&#xe90b;" glyph-name="share" horiz-adv-x="1092" d="M658.166 777.018c-0.002 43.289 15.343 85.176 43.308 118.218 27.969 33.042 66.744 55.099 109.438 62.249s86.542-1.067 123.747-23.193c37.205-22.126 65.359-56.727 79.462-97.655s13.237-85.529-2.437-125.878c-15.681-40.35-45.158-73.834-83.197-94.501-38.031-20.667-82.166-27.179-124.553-18.379-42.38 8.8-80.275 32.343-106.94 66.445l-337.564-168.783c8.331-31.067 8.331-63.781 0-94.849l337.714-168.929c27.989 35.628 68.205 59.593 112.865 67.252 44.653 7.658 90.556-1.537 128.819-25.807 38.263-24.262 66.15-61.87 78.254-105.533 12.111-43.657 7.571-90.255-12.725-130.758-20.296-40.509-54.914-72.035-97.137-88.467-42.216-16.432-89.040-16.609-131.379-0.485s-77.182 47.398-97.778 87.757c-20.594 40.352-25.47 86.917-13.683 130.662l-337.712 168.93c-23.474-29.925-55.696-51.784-92.179-62.53-36.482-10.752-75.409-9.851-111.358 2.567-35.949 12.414-67.13 35.734-89.201 66.708s-33.932 68.061-33.932 106.093c0 38.033 11.861 75.119 33.932 106.094s53.252 54.294 89.201 66.712c35.949 12.417 74.876 13.314 111.358 2.565s68.705-32.608 92.179-62.532l337.639 168.71c-4.101 15.436-6.167 31.343-6.143 47.314zM841.134 886.858c-29.123 0-57.050-11.568-77.64-32.16-20.596-20.592-32.16-48.521-32.16-77.643s11.564-57.051 32.16-77.643c20.589-20.592 48.517-32.16 77.64-32.16s57.050 11.568 77.647 32.16c20.589 20.592 32.16 48.521 32.16 77.643s-11.571 57.051-32.16 77.643c-20.596 20.592-48.524 32.16-77.647 32.16zM840.991 228.693c-29.095 0-56.996-11.558-77.565-32.126-20.576-20.576-32.133-48.476-32.133-77.565 0-29.095 11.558-56.996 32.133-77.571 20.569-20.569 48.469-32.126 77.565-32.126 29.088 0 56.996 11.558 77.565 32.126 20.569 20.576 32.126 48.476 32.126 77.571 0 29.088-11.558 56.989-32.126 77.565-20.569 20.569-48.476 32.126-77.565 32.126zM73.131 448.082c0-14.405 2.837-28.669 8.35-41.978s13.593-25.401 23.779-35.587c10.186-10.186 22.279-18.266 35.587-23.779s27.573-8.35 41.979-8.35c14.405 0 28.669 2.838 41.978 8.35s25.401 13.593 35.587 23.779c10.186 10.186 18.266 22.279 23.779 35.587s8.35 27.573 8.35 41.978c0 29.093-11.558 56.994-32.129 77.566s-48.473 32.128-77.565 32.128c-29.093 0-56.994-11.557-77.566-32.128s-32.128-48.473-32.128-77.566z" />
<glyph unicode="&#xe90d;" glyph-name="icon-post" horiz-adv-x="4710" d="M4622.623 448c0-282.77-229.23-512-512-512s-512 229.23-512 512c0 282.77 229.23 512 512 512s512-229.23 512-512zM2867.2 448c0-282.77-229.23-512-512-512s-512 229.23-512 512c0 282.77 229.23 512 512 512s512-229.23 512-512zM1024 448c0-282.77-229.23-512-512-512s-512 229.23-512 512c0 282.77 229.23 512 512 512s512-229.23 512-512z" />
<glyph unicode="&#xe90f;" glyph-name="cmt" d="M213.335 832h554.665c33.951 0 66.504-13.486 90.511-37.49 24.003-24.005 37.489-56.562 37.489-90.51v-384c0-33.946-13.486-66.504-37.489-90.511-24.008-24.003-56.561-37.489-90.511-37.489h-195.666l-158.168-158.167c-5.967-5.965-13.569-10.025-21.844-11.674-8.275-1.644-16.853-0.799-24.648 2.432-7.795 3.226-14.458 8.694-19.146 15.708s-7.192 15.263-7.194 23.7v128h-128c-33.948 0-66.505 13.486-90.51 37.489-24.005 24.008-37.49 56.566-37.49 90.511v384c0 33.948 13.486 66.505 37.49 90.51s56.562 37.49 90.51 37.49zM768 789.334h-554.665c-22.632 0-44.337-8.991-60.34-24.994s-24.994-37.708-24.994-60.34v-384c0-22.63 8.99-44.334 24.994-60.339s37.708-24.996 60.34-24.996h170.666v-170.665l170.669 170.665h213.33c22.63 0 44.339 8.991 60.339 24.996 16.005 16.005 24.996 37.709 24.996 60.339v384c0 22.632-8.991 44.337-24.996 60.34-16 16.003-37.709 24.994-60.339 24.994z" />
</font></defs></svg>