<svg width="31" height="20" viewBox="0 0 31 20" fill="none" xmlns="http://www.w3.org/2000/svg">
<path d="M29.8572 3.58887L20.7947 10.0621L29.8572 16.5353V3.58887Z" stroke="#E66B4B" stroke-linecap="round" stroke-linejoin="round"/>
<path d="M18.2054 1H3.96429C2.53426 1 1.375 2.15926 1.375 3.58929V16.5357C1.375 17.9657 2.53426 19.125 3.96429 19.125H18.2054C19.6354 19.125 20.7946 17.9657 20.7946 16.5357V3.58929C20.7946 2.15926 19.6354 1 18.2054 1Z" stroke="#E66B4B" stroke-linecap="round" stroke-linejoin="round"/>
</svg>
