<svg width="12" height="14" viewBox="0 0 12 14" fill="none" xmlns="http://www.w3.org/2000/svg">
<path d="M6.70497 6.99946L8.85497 4.49696C8.94912 4.38711 9.00202 4.23813 9.00202 4.08279C9.00202 3.92745 8.94912 3.77847 8.85497 3.66862C8.76082 3.55878 8.63312 3.49707 8.49997 3.49707C8.36682 3.49707 8.23912 3.55878 8.14497 3.66862L5.99997 6.17696L3.85497 3.66862C3.76082 3.55878 3.63312 3.49707 3.49997 3.49707C3.36682 3.49707 3.23912 3.55878 3.14497 3.66862C3.05082 3.77847 2.99792 3.92745 2.99792 4.08279C2.99792 4.23813 3.05082 4.38711 3.14497 4.49696L5.29497 6.99946L3.14497 9.50196C3.09811 9.55619 3.06091 9.6207 3.03552 9.69179C3.01014 9.76287 2.99707 9.83912 2.99707 9.91612C2.99707 9.99313 3.01014 10.0694 3.03552 10.1405C3.06091 10.2115 3.09811 10.2761 3.14497 10.3303C3.19145 10.385 3.24675 10.4284 3.30768 10.458C3.36861 10.4876 3.43396 10.5028 3.49997 10.5028C3.56598 10.5028 3.63133 10.4876 3.69226 10.458C3.75319 10.4284 3.80849 10.385 3.85497 10.3303L5.99997 7.82196L8.14497 10.3303C8.19145 10.385 8.24675 10.4284 8.30768 10.458C8.36861 10.4876 8.43396 10.5028 8.49997 10.5028C8.56598 10.5028 8.63133 10.4876 8.69226 10.458C8.75319 10.4284 8.80849 10.385 8.85497 10.3303C8.90183 10.2761 8.93903 10.2115 8.96442 10.1405C8.9898 10.0694 9.00287 9.99313 9.00287 9.91612C9.00287 9.83912 8.9898 9.76287 8.96442 9.69179C8.93903 9.6207 8.90183 9.55619 8.85497 9.50196L6.70497 6.99946Z" fill="#C4C4C4"/>
</svg>
