<svg width="15" height="15" viewBox="0 0 15 15" fill="none" xmlns="http://www.w3.org/2000/svg">
<path opacity="0.8" fill-rule="evenodd" clip-rule="evenodd" d="M11.2102 10.3286L14.8163 13.9347C15.0612 14.1765 15.0612 14.5745 14.8163 14.8163C14.5714 15.0612 14.1765 15.0612 13.9316 14.8163L10.3255 11.2133C9.23571 12.1071 7.84286 12.6429 6.32143 12.6429C2.82857 12.6429 0 9.81122 0 6.32143C0 2.83163 2.82857 0 6.32143 0C9.81122 0 12.6429 2.83163 12.6429 6.32143C12.6429 7.84286 12.1041 9.23878 11.2102 10.3286ZM1.25632 6.32265C1.25632 9.11448 3.52775 11.3859 6.32265 11.3859C9.11448 11.3859 11.389 9.11448 11.389 6.32265C11.389 3.53081 9.11448 1.25632 6.32265 1.25632C3.52775 1.25632 1.25632 3.53081 1.25632 6.32265Z" fill="#777777"/>
</svg>
