<svg width="18" height="18" viewBox="0 0 18 18" fill="none" xmlns="http://www.w3.org/2000/svg">
<path d="M7.3125 0.5625C6.26858 0.563682 5.26775 0.978904 4.52958 1.71707C3.79141 2.45524 3.37619 3.45607 3.37501 4.5V7.30129C3.37536 7.77182 3.49341 8.2348 3.71841 8.64805L4.68363 10.4176L2.12344 12.0817C1.72998 12.3364 1.40667 12.6857 1.18311 13.0977C0.959547 13.5096 0.842871 13.9711 0.843755 14.4398V17.4375H10.9688V16.3125H1.96876V14.4398C1.96823 14.1586 2.03824 13.8817 2.17238 13.6345C2.30653 13.3873 2.50052 13.1777 2.7366 13.0249L6.16996 10.7932L4.70606 8.10935C4.57106 7.8614 4.50022 7.58361 4.50001 7.30129V4.5C4.50001 3.75408 4.79632 3.03871 5.32377 2.51126C5.85121 1.98382 6.56658 1.6875 7.3125 1.6875C8.05843 1.6875 8.7738 1.98382 9.30124 2.51126C9.82869 3.03871 10.125 3.75408 10.125 4.5V7.30129C10.1248 7.58361 10.054 7.8614 9.91895 8.10935L8.45508 10.7932L10.9688 12.4271V11.0854L9.94138 10.4174L10.9066 8.64784C11.1316 8.23465 11.2496 7.77175 11.25 7.30129V4.5C11.2488 3.45607 10.8336 2.45524 10.0954 1.71707C9.35727 0.978904 8.35643 0.563682 7.3125 0.5625Z" fill="#333333"/>
<path d="M14.9062 14.0625V11.8125H13.7812V14.0625H11.5312V15.1875H13.7812V17.4375H14.9062V15.1875H17.1562V14.0625H14.9062Z" fill="#333333"/>
</svg>
