<svg width="20" height="20" viewBox="0 0 20 20" fill="none" xmlns="http://www.w3.org/2000/svg">
<path d="M18.3333 15.8333C18.3333 16.2754 18.1577 16.6993 17.8452 17.0118C17.5326 17.3244 17.1087 17.5 16.6667 17.5H3.33332C2.8913 17.5 2.46737 17.3244 2.15481 17.0118C1.84225 16.6993 1.66666 16.2754 1.66666 15.8333V4.16667C1.66666 3.72464 1.84225 3.30072 2.15481 2.98816C2.46737 2.67559 2.8913 2.5 3.33332 2.5H7.49999L9.16666 5H16.6667C17.1087 5 17.5326 5.17559 17.8452 5.48816C18.1577 5.80072 18.3333 6.22464 18.3333 6.66667V15.8333Z" stroke="#333333" stroke-linecap="round" stroke-linejoin="round"/>
<path d="M7.5 11.667H12.5" stroke="#333333" stroke-linecap="round" stroke-linejoin="round"/>
</svg>
